…
### Random Walk Analysis

``` r
# Analyze random walk endpoints
rw_analysis <- rw |>
  group_by(sim_number) |>
  summarise(
    final_position = last(random_walk_value),
    max_position = max(random_walk_value),
    min_position = min(random_walk_value),
    range = max(random_walk_value) - min(random_walk_value)
  )

rw_analysis
#> # A tibble: 25 × 5
#>    sim_number final_position max_position min_position range
#>    <fct>               <dbl>        <dbl>        <dbl> <dbl>
#>  1 1                 -0.349        0.106      -0.421   0.527
#>  2 2                  0.623        1.14        0.164   0.974
#>  3 3                 -0.254        0.0686     -0.794   0.863
#>  4 4                  0.345        0.345      -0.400   0.745
#>  5 5                 -1.07         0.461      -1.07    1.53 
#>  6 6                  0.689        0.689      -0.319   1.01 
#>  7 7                  0.0732       0.649      -0.110   0.758
#>  8 8                 -0.154        0.508      -0.445   0.953
#>  9 9                  0.769        0.850       0.00377 0.846
#> 10 10                -0.856        0.106      -0.931   1.04 
#> # ℹ 15 more rows
```
…
