…
## Author

Steven P. Sanderson II, MPH

## Examples

``` r
x <- mtcars$mpg

tidy_bootstrap(x) |>
  bootstrap_unnest_tbl() |>
  bootstrap_q_augment(y)
#> # A tibble: 50,000 × 3
#>    sim_number     y     q
#>    <fct>      <dbl> <dbl>
#>  1 1           18.1  10.4
#>  2 1           21    10.4
#>  3 1           30.4  10.4
#>  4 1           21.4  10.4
#>  5 1           15    10.4
#>  6 1           18.1  10.4
#>  7 1           21.4  10.4
#>  8 1           16.4  10.4
#>  9 1           24.4  10.4
#> 10 1           22.8  10.4
#> # ℹ 49,990 more rows
```
