…
## Author

Steven P. Sanderson II, MPH

## Examples

``` r
x <- mtcars$mpg
tidy_bootstrap(x) |>
  bootstrap_unnest_tbl() |>
  bootstrap_p_augment(y)
#> # A tibble: 50,000 × 3
#>    sim_number     y      p
#>    <fct>      <dbl>  <dbl>
#>  1 1           13.3 0.0944
#>  2 1           21.5 0.716 
#>  3 1           19.2 0.529 
#>  4 1           19.2 0.529 
#>  5 1           21.4 0.687 
#>  6 1           21.4 0.687 
#>  7 1           21   0.625 
#>  8 1           15.5 0.279 
#>  9 1           17.3 0.376 
#> 10 1           15.2 0.249 
#> # ℹ 49,990 more rows
```
