…
as.data.frame(normalized_data) |>
  sapply(function(x) quantile(x, probs = seq(0, 1, 1 / 4)))
#>               V1          V2          V3          V4
#> 0%   -1.50679669 -1.50679669 -1.50679669 -1.50679669
#> 25%  -0.42145863 -0.42145863 -0.42145863 -0.42145863
#> 50%   0.09638238  0.09638238  0.09638238  0.09638238
#> 75%   0.37319866  0.37319866  0.37319866  0.37319866
#> 100%  1.54004626  1.54004626  1.54004626  1.54004626

quantile_normalize(
data.frame(rnorm(30),
           rnorm(30)),
           .return_tibble = TRUE)
#> # A tibble: 30 × 2
#>    rnorm.30. rnorm.30..1
#>        <dbl>       <dbl>
#>  1    -0.434      -0.694
#>  2     0.649      -0.445
#>  3    -1.88       -0.162
#>  4     0.683       0.263
#>  5    -1.14        0.600
#>  6    -0.298      -0.898
#>  7    -0.996      -0.996
#>  8    -1.52       -1.19 
#>  9     0.229       1.82 
#> 10    -0.898      -0.104
#> # ℹ 20 more rows
```
