Generate Multiple Tidy Distributions of a single type — tidy_multi_single_dist • TidyDensity
…
    Steven P. Sanderson II, MPH

    Examples

tidy_multi_single_dist(
  .tidy_dist = "tidy_normal",
  .param_list = list(
    .n = 50,
    .mean = c(-1, 0, 1),
    .sd = 1,
    .num_sims = 3,
    .return_tibble = TRUE
  )
)
#> # A tibble: 450 × 8
#>    sim_number dist_name             x      y    dx       dy      p      q
#>    <fct>      <fct>             <int>  <dbl> <dbl>    <dbl>  <dbl>  <dbl>
#>  1 1          Gaussian c(-1, 1)     1 -2.00  -4.53 0.000219 0.159  -2.00 
#>  2 1          Gaussian c(-1, 1)     2 -0.998 -4.39 0.000566 0.501  -0.998
#>  3 1          Gaussian c(-1, 1)     3 -1.80  -4.25 0.00131  0.211  -1.80 
#>  4 1          Gaussian c(-1, 1)     4 -0.949 -4.12 0.00274  0.520  -0.949
#>  5 1          Gaussian c(-1, 1)     5 -1.42  -3.98 0.00516  0.336  -1.42 
#>  6 1          Gaussian c(-1, 1)     6 -2.30  -3.84 0.00881  0.0960 -2.30 
#>  7 1          Gaussian c(-1, 1)     7 -1.35  -3.70 0.0138   0.365  -1.35 
#>  8 1          Gaussian c(-1, 1)     8 -0.899 -3.57 0.0202   0.540  -0.899
#>  9 1          Gaussian c(-1, 1)     9 -0.852 -3.43 0.0283   0.559  -0.852
#> 10 1          Gaussian c(-1, 1)    10 -1.05  -3.29 0.0390   0.481  -1.05 
#> # ℹ 440 more rows
…
