…
## Author

Steven P. Sanderson II, MPH

## Examples

``` r
combined_tbl <- tidy_combine_distributions(
  tidy_normal(),
  tidy_gamma(),
  tidy_beta()
)

combined_tbl
#> # A tibble: 150 × 8
#>    sim_number     x      y    dx       dy      p      q dist_type       
#>    <fct>      <int>  <dbl> <dbl>    <dbl>  <dbl>  <dbl> <fct>           
#>  1 1              1 -0.551 -3.55 0.000360 0.291  -0.551 Gaussian c(0, 1)
#>  2 1              2 -0.652 -3.39 0.000993 0.257  -0.652 Gaussian c(0, 1)
#>  3 1              3  1.24  -3.24 0.00245  0.892   1.24  Gaussian c(0, 1)
#>  4 1              4  0.791 -3.09 0.00541  0.785   0.791 Gaussian c(0, 1)
#>  5 1              5 -2.16  -2.93 0.0108   0.0156 -2.16  Gaussian c(0, 1)
#>  6 1              6 -1.79  -2.78 0.0193   0.0366 -1.79  Gaussian c(0, 1)
#>  7 1              7 -0.428 -2.63 0.0314   0.334  -0.428 Gaussian c(0, 1)
#>  8 1              8  1.10  -2.47 0.0466   0.864   1.10  Gaussian c(0, 1)
#>  9 1              9  1.69  -2.32 0.0639   0.955   1.69  Gaussian c(0, 1)
#> 10 1             10 -1.41  -2.17 0.0818   0.0793 -1.41  Gaussian c(0, 1)
#> # ℹ 140 more rows
…
