…
## Author

Steven P. Sanderson II, MPH

## Examples

``` r
tidy_inverse_normal()
#> # A tibble: 50 × 7
#>    sim_number     x     y      dx      dy     p     q
#>    <fct>      <int> <dbl>   <dbl>   <dbl> <dbl> <dbl>
#>  1 1              1 3.88  -0.833  0.00136 0.977 3.88 
#>  2 1              2 0.344 -0.717  0.00407 0.212 0.344
#>  3 1              3 1.45  -0.600  0.0108  0.800 1.45 
#>  4 1              4 0.376 -0.484  0.0257  0.246 0.376
#>  5 1              5 1.15  -0.368  0.0546  0.720 1.15 
#>  6 1              6 0.382 -0.252  0.104   0.252 0.382
#>  7 1              7 2.08  -0.135  0.178   0.894 2.08 
#>  8 1              8 1.70  -0.0192 0.274   0.846 1.70 
#>  9 1              9 0.536  0.0970 0.382   0.396 0.536
#> 10 1             10 1.98   0.213  0.484   0.884 1.98 
#> # ℹ 40 more rows
```
