Automatic Plot of Combined Multi Dist Data — tidy_combined_autoplot • TidyDensity
…
    Author

    Steven P. Sanderson II, MPH

    Examples

combined_tbl <- tidy_combine_distributions(
  tidy_normal(),
  tidy_gamma(),
  tidy_beta()
)

combined_tbl
#> # A tibble: 150 x 8
#>    sim_number     x      y    dx       dy     p       q dist_type       
#>    <fct>      <int>  <dbl> <dbl>    <dbl> <dbl>   <dbl> <fct>           
#>  1 1              1  0.417 -3.61 0.000244 0.5    0.179  Gaussian c(0, 1)
#>  2 1              2  1.11  -3.46 0.000753 0.508  0.547  Gaussian c(0, 1)
#>  3 1              3 -0.287 -3.31 0.00199  0.516 -0.169  Gaussian c(0, 1)
#>  4 1              4  0.769 -3.16 0.00446  0.524  0.358  Gaussian c(0, 1)
#>  5 1              5  1.01  -3.01 0.00859  0.533  0.489  Gaussian c(0, 1)
#>  6 1              6 -0.276 -2.86 0.0143   0.541 -0.163  Gaussian c(0, 1)
#>  7 1              7 -0.138 -2.71 0.0210   0.549 -0.0947 Gaussian c(0, 1)
#>  8 1              8  0.479 -2.56 0.0282   0.557  0.210  Gaussian c(0, 1)
#>  9 1              9  1.43  -2.41 0.0365   0.565  0.736  Gaussian c(0, 1)
#> 10 1             10 -1.39  -2.26 0.0476   0.573 -0.779  Gaussian c(0, 1)
#> # ... with 140 more rows
…
