…
## Author

Steven P. Sanderson II, MPH

## Examples

``` r
tidy_normal(.sd = .1, .num_sims = 25) %>%
  tidy_random_walk()
#> # A tibble: 1,250 × 8
#>    sim_number     x        y     dx      dy      p        q random_walk_value
#>    <fct>      <int>    <dbl>  <dbl>   <dbl>  <dbl>    <dbl>             <dbl>
#>  1 1              1 -0.162   -0.290 0.00407 0.0530 -0.162              -0.162
#>  2 1              2 -0.0873  -0.278 0.0133  0.191  -0.0873             -0.235
#>  3 1              3 -0.0158  -0.266 0.0372  0.437  -0.0158             -0.247
#>  4 1              4 -0.146   -0.254 0.0896  0.0719 -0.146              -0.357
#>  5 1              5 -0.0205  -0.241 0.186   0.419  -0.0205             -0.370
#>  6 1              6 -0.00932 -0.229 0.339   0.463  -0.00932            -0.376
#>  7 1              7 -0.132   -0.217 0.548   0.0927 -0.132              -0.459
#>  8 1              8  0.00606 -0.205 0.800   0.524   0.00606            -0.455
#>  9 1              9  0.00386 -0.193 1.08    0.515   0.00386            -0.453
#> 10 1             10  0.0940  -0.181 1.36    0.826   0.0940             -0.402
#> # ℹ 1,240 more rows
```
