…
Other F Distribution:
[`util_f_param_estimate()`](https://www.spsanderson.com/TidyDensity/reference/util_f_param_estimate.md),
[`util_f_stats_tbl()`](https://www.spsanderson.com/TidyDensity/reference/util_f_stats_tbl.md)

## Author

Steven P. Sanderson II, MPH

## Examples

``` r
tidy_f()
#> # A tibble: 50 × 7
#>    sim_number     x      y      dx       dy      p      q
#>    <fct>      <int>  <dbl>   <dbl>    <dbl>  <dbl>  <dbl>
#>  1 1              1 0.579    -7.37 6.12e- 2 0.414  0.579 
#>  2 1              2 0.250   245.   6.72e-20 0.295  0.250 
#>  3 1              3 0.211   497.   4.36e-20 0.274  0.211 
#>  4 1              4 0.762   750.   9.42e-20 0.457  0.762 
#>  5 1              5 9.35   1002.   1.55e-20 0.799  9.35  
#>  6 1              6 0.0243 1254.   1.46e-19 0.0985 0.0243
#>  7 1              7 8.63   1506.   6.44e-20 0.791  8.63  
#>  8 1              8 0.249  1759.   0        0.294  0.249 
#>  9 1              9 2.67   2011.   6.42e-20 0.651  2.67  
#> 10 1             10 5.03   2263.   1.89e-20 0.733  5.03  
#> # ℹ 40 more rows
```
