…
Other Weibull:
[`tidy_inverse_weibull()`](https://www.spsanderson.com/TidyDensity/reference/tidy_inverse_weibull.md),
[`util_weibull_param_estimate()`](https://www.spsanderson.com/TidyDensity/reference/util_weibull_param_estimate.md),
[`util_weibull_stats_tbl()`](https://www.spsanderson.com/TidyDensity/reference/util_weibull_stats_tbl.md)

## Author

Steven P. Sanderson II, MPH

## Examples

``` r
tidy_weibull()
#> # A tibble: 50 × 7
#>    sim_number     x      y      dx      dy      p      q
#>    <fct>      <int>  <dbl>   <dbl>   <dbl>  <dbl>  <dbl>
#>  1 1              1 1.97   -0.903  0.00137 0.860  1.97  
#>  2 1              2 2.25   -0.783  0.00459 0.895  2.25  
#>  3 1              3 0.0354 -0.663  0.0133  0.0348 0.0354
#>  4 1              4 1.40   -0.542  0.0335  0.752  1.40  
#>  5 1              5 0.248  -0.422  0.0736  0.219  0.248 
#>  6 1              6 0.201  -0.301  0.141   0.182  0.201 
#>  7 1              7 2.86   -0.181  0.238   0.943  2.86  
#>  8 1              8 0.126  -0.0607 0.356   0.118  0.126 
#>  9 1              9 0.901   0.0597 0.475   0.594  0.901 
#> 10 1             10 3.76    0.180  0.574   0.977  3.76  
#> # ℹ 40 more rows
```
