Tidy Randomly Generated Generalized Beta Distribution Tibble — tidy_generalized_beta • TidyDensity
…
Other Beta: 
tidy_beta(),
util_beta_param_estimate()

    Author

    Steven P. Sanderson II, MPH

    Examples

tidy_generalized_beta()
#> # A tibble: 50 x 7
#>    sim_number     x       y      dx      dy      p      q
#>    <fct>      <int>   <dbl>   <dbl>   <dbl>  <dbl>  <dbl>
#>  1 1              1 0.175   -0.366  0.00167 0      0     
#>  2 1              2 0.00384 -0.331  0.00402 0.0204 0.0204
#>  3 1              3 0.255   -0.295  0.00899 0.0408 0.0408
#>  4 1              4 0.300   -0.260  0.0187  0.0612 0.0612
#>  5 1              5 0.768   -0.224  0.0361  0.0816 0.0816
#>  6 1              6 0.536   -0.189  0.0650  0.102  0.102 
#>  7 1              7 0.185   -0.154  0.109   0.122  0.122 
#>  8 1              8 0.460   -0.118  0.172   0.143  0.143 
#>  9 1              9 0.643   -0.0827 0.254   0.163  0.163 
#> 10 1             10 0.541   -0.0473 0.354   0.184  0.184 
#> # ... with 40 more rows
…
