…
## Author

Steven P. Sanderson II, MPH

## Examples

``` r
tidy_pareto1()
#> # A tibble: 50 × 7
#>    sim_number     x     y        dx      dy      p     q
#>    <fct>      <int> <dbl>     <dbl>   <dbl>  <dbl> <dbl>
#>  1 1              1  4.77 -1.17     0.00146 0.790   4.77
#>  2 1              2  3.63 -0.586    0.0131  0.725   3.63
#>  3 1              3  1.20  0.000728 0.0650  0.165   1.20
#>  4 1              4  3.56  0.588    0.181   0.719   3.56
#>  5 1              5  1.18  1.17     0.289   0.152   1.18
#>  6 1              6  1.62  1.76     0.282   0.381   1.62
#>  7 1              7  4.01  2.35     0.194   0.750   4.01
#>  8 1              8  1.61  2.94     0.136   0.380   1.61
#>  9 1              9 18.2   3.52     0.128   0.945  18.2 
#> 10 1             10  1.09  4.11     0.116   0.0847  1.09
#> # ℹ 40 more rows
```
