Tidy Randomly Generated Uniform Distribution Tibble — tidy_uniform • TidyDensity
…
Other Uniform: 
util_uniform_param_estimate(),
util_uniform_stats_tbl()

    Author

    Steven P. Sanderson II, MPH

    Examples

tidy_uniform()
#> # A tibble: 50 × 7
#>    sim_number     x      y      dx      dy      p      q
#>    <fct>      <int>  <dbl>   <dbl>   <dbl>  <dbl>  <dbl>
#>  1 1              1 0.321  -0.345  0.00337 0.321  0.321 
#>  2 1              2 0.977  -0.311  0.00803 0.977  0.977 
#>  3 1              3 0.0515 -0.277  0.0177  0.0515 0.0515
#>  4 1              4 0.0632 -0.243  0.0359  0.0632 0.0632
#>  5 1              5 0.796  -0.209  0.0676  0.796  0.796 
#>  6 1              6 0.910  -0.174  0.118   0.910  0.910 
#>  7 1              7 0.607  -0.140  0.192   0.607  0.607 
#>  8 1              8 0.668  -0.106  0.290   0.668  0.668 
#>  9 1              9 0.767  -0.0717 0.411   0.767  0.767 
#> 10 1             10 0.681  -0.0375 0.546   0.681  0.681 
#> # … with 40 more rows
…
