Tidy MCMC Sampling — tidy_mcmc_sampling • TidyDensity
…
    Author

    Steven P. Sanderson II, MPH

    Examples

# Generate MCMC samples
set.seed(123)
data <- rnorm(100)
result <- tidy_mcmc_sampling(data, "median", "cmedian", 500)
#> Warning: Setting '.num_sims' to less than 2000 means that results can be potentially
#> unstable. Consider setting to 2000 or more.
result
#> $mcmc_data
#> # A tibble: 1,000 × 3
#>    sim_number name                 value
#>    <fct>      <fct>                <dbl>
#>  1 1          .sample_median    -0.0285 
#>  2 1          .cum_stat_cmedian -0.0285 
#>  3 2          .sample_median     0.239  
#>  4 2          .cum_stat_cmedian  0.105  
#>  5 3          .sample_median     0.00576
#>  6 3          .cum_stat_cmedian  0.00576
#>  7 4          .sample_median    -0.0357 
#>  8 4          .cum_stat_cmedian -0.0114 
#>  9 5          .sample_median    -0.111  
#> 10 5          .cum_stat_cmedian -0.0285 
#> # ℹ 990 more rows
…
