…
## Author

Steven P. Sanderson II, MPH

## Examples

``` r
tidy_poisson()
#> # A tibble: 50 × 7
#>    sim_number     x     y      dx      dy     p     q
#>    <fct>      <int> <int>   <dbl>   <dbl> <dbl> <dbl>
#>  1 1              1     1 -0.691  0.00503 0.736     1
#>  2 1              2     2 -0.561  0.0234  0.920     2
#>  3 1              3     0 -0.431  0.0787  0.368     0
#>  4 1              4     0 -0.300  0.193   0.368     0
#>  5 1              5     1 -0.170  0.343   0.736     1
#>  6 1              6     1 -0.0398 0.443   0.736     1
#>  7 1              7     4  0.0904 0.417   0.996     4
#>  8 1              8     2  0.221  0.287   0.920     2
#>  9 1              9     2  0.351  0.158   0.920     2
#> 10 1             10     1  0.481  0.120   0.736     1
#> # ℹ 40 more rows
```
