…
Other Beta:
[`tidy_generalized_beta()`](https://www.spsanderson.com/TidyDensity/reference/tidy_generalized_beta.md),
[`util_beta_param_estimate()`](https://www.spsanderson.com/TidyDensity/reference/util_beta_param_estimate.md),
[`util_beta_stats_tbl()`](https://www.spsanderson.com/TidyDensity/reference/util_beta_stats_tbl.md)

## Author

Steven P. Sanderson II, MPH

## Examples

``` r
tidy_beta()
#> # A tibble: 50 × 7
#>    sim_number     x     y      dx      dy     p     q
#>    <fct>      <int> <dbl>   <dbl>   <dbl> <dbl> <dbl>
#>  1 1              1 0.419 -0.377  0.00316 0.419 0.419
#>  2 1              2 0.229 -0.341  0.00749 0.229 0.229
#>  3 1              3 0.710 -0.305  0.0165  0.710 0.710
#>  4 1              4 0.737 -0.270  0.0336  0.737 0.737
#>  5 1              5 0.497 -0.234  0.0635  0.497 0.497
#>  6 1              6 0.995 -0.198  0.112   0.995 0.995
#>  7 1              7 0.252 -0.162  0.182   0.252 0.252
#>  8 1              8 0.336 -0.127  0.276   0.336 0.336
#>  9 1              9 0.451 -0.0911 0.392   0.451 0.451
#> 10 1             10 0.497 -0.0553 0.519   0.497 0.497
#> # ℹ 40 more rows
```
