…
xd <- trunc(xc)
output_d <- tidy_distribution_comparison(xd, "discrete")
#> There was no need to scale the data.
#> Warning: There were 12 warnings in `dplyr::mutate()`.
#> The first warning was:
#> ℹ In argument: `aic_value = dplyr::case_when(...)`.
#> Caused by warning in `actuar::dpareto()`:
#> ! NaNs produced
#> ℹ Run dplyr::last_dplyr_warnings() to see the 11 remaining warnings.

output_c
#> $comparison_tbl
#> # A tibble: 384 × 8
#>    sim_number     x     y    dx       dy     p     q dist_type
#>    <fct>      <int> <dbl> <dbl>    <dbl> <dbl> <dbl> <fct>    
#>  1 1              1  21    2.97 0.000113 0.625  10.4 Empirical
#>  2 1              2  21    4.21 0.000452 0.625  10.4 Empirical
#>  3 1              3  22.8  5.44 0.00142  0.781  13.3 Empirical
#>  4 1              4  21.4  6.68 0.00354  0.688  14.3 Empirical
#>  5 1              5  18.7  7.92 0.00720  0.469  14.7 Empirical
#>  6 1              6  18.1  9.16 0.0124   0.438  15   Empirical
#>  7 1              7  14.3 10.4  0.0192   0.125  15.2 Empirical
#>  8 1              8  24.4 11.6  0.0281   0.812  15.2 Empirical
#>  9 1              9  22.8 12.9  0.0395   0.781  15.5 Empirical
#> 10 1             10  19.2 14.1  0.0515   0.531  15.8 Empirical
#> # ℹ 374 more rows
#> 
#> $deviance_tbl
#> # A tibble: 384 × 2
#>    name                        value
#>    <chr>                       <dbl>
#>  1 Empirical                  0.451 
#>  2 Beta c(1.107, 1.577, 0)    0.381 
#>  3 Cauchy c(19.2, 7.375)      0.451 
#>  4 Chisquare c(20.243, 0)    -0.112 
#>  5 Exponential c(0.05)       -0.130 
#>  6 Gamma c(11.47, 1.752)      0.451 
#>  7 Logistic c(20.091, 3.27)   0.0457
#>  8 Lognormal c(2.958, 0.293)  0.269 
#>  9 Pareto c(10.4, 1.624)      0.267 
#> 10 Uniform c(8.341, 31.841)   0.238 
#> # ℹ 374 more rows
…
#>  8 Beta c(1…            2.29        NA      NA        0.781   0.000500 Monte-Ca…
#>  9 Exponent…            5.73       258.    258.       0.375   0.0205   Monte-Ca…
#> 10 Pareto c…            6.51       260.    260.       0.844   0.000500 Monte-Ca…
#> 11 Cauchy c…            7.37       218.    218.       0.656   0.000500 Monte-Ca…
#> # ℹ 1 more variable: alternative <chr>
#> 
#> attr(,".x")
#>  [1] 21.0 21.0 22.8 21.4 18.7 18.1 14.3 24.4 22.8 19.2 17.8 16.4 17.3 15.2 10.4
#> [16] 10.4 14.7 32.4 30.4 33.9 21.5 15.5 15.2 13.3 19.2 27.3 26.0 30.4 15.8 19.7
#> [31] 15.0 21.4
#> attr(,".n")
#> [1] 32
output_d
#> $comparison_tbl
#> # A tibble: 160 × 8
#>    sim_number     x     y    dx       dy     p     q dist_type
#>    <fct>      <int> <dbl> <dbl>    <dbl> <dbl> <dbl> <fct>    
#>  1 1              1    21  2.95 0.000119 0.719    10 Empirical
#>  2 1              2    21  4.14 0.000484 0.719    10 Empirical
#>  3 1              3    22  5.34 0.00154  0.781    13 Empirical
#>  4 1              4    21  6.54 0.00382  0.719    14 Empirical
#>  5 1              5    18  7.74 0.00765  0.469    14 Empirical
#>  6 1              6    18  8.93 0.0128   0.469    15 Empirical
#>  7 1              7    14 10.1  0.0194   0.156    15 Empirical
#>  8 1              8    24 11.3  0.0281   0.812    15 Empirical
#>  9 1              9    22 12.5  0.0397   0.781    15 Empirical
#> 10 1             10    19 13.7  0.0523   0.562    15 Empirical
#> # ℹ 150 more rows
#> 
#> $deviance_tbl
#> # A tibble: 160 × 2
#>    name                           value
#>    <chr>                          <dbl>
#>  1 Empirical                     0.478 
#>  2 Binomial c(32, 0.031)         0.478 
#>  3 Geometric c(0.048)           -0.245 
#>  4 Hypergeometric c(21, 11, 21) -0.0932
#>  5 Poisson c(19.688)             0.115 
#>  6 Empirical                     0.478 
#>  7 Binomial c(32, 0.031)         0.478 
#>  8 Geometric c(0.048)            0.0936
#>  9 Hypergeometric c(21, 11, 21)  0.193 
#> 10 Poisson c(19.688)             0.206 
#> # ℹ 150 more rows
…
