Tidy Random Walk — tidy_random_walk • TidyDensity
…
    Author

    Steven P. Sanderson II, MPH

    Examples

tidy_normal(.sd = .1, .num_sims = 25) %>%
  tidy_random_walk()
#> # A tibble: 1,250 × 8
#>    sim_number     x         y     dx      dy     p         q random_walk_value
#>    <fct>      <int>     <dbl>  <dbl>   <dbl> <dbl>     <dbl>             <dbl>
#>  1 1              1 -0.125    -0.307 0.00328 0.105 -0.125              -0.125 
#>  2 1              2 -0.0905   -0.292 0.0125  0.183 -0.0905             -0.204 
#>  3 1              3  0.161    -0.276 0.0391  0.946  0.161              -0.0764
#>  4 1              4  0.0463   -0.260 0.101   0.678  0.0463             -0.0336
#>  5 1              5  0.0521   -0.244 0.215   0.699  0.0521              0.0167
#>  6 1              6 -0.0336   -0.228 0.384   0.369 -0.0336             -0.0174
#>  7 1              7  0.210    -0.212 0.578   0.982  0.210               0.189 
#>  8 1              8 -0.000324 -0.196 0.753   0.499 -0.000324            0.189 
#>  9 1              9 -0.0361   -0.180 0.878   0.359 -0.0361              0.146 
#> 10 1             10 -0.0597   -0.165 0.969   0.275 -0.0597              0.0776
#> # … with 1,240 more rows
…
