…
Other Cauchy:
[`util_cauchy_param_estimate()`](https://www.spsanderson.com/TidyDensity/reference/util_cauchy_param_estimate.md),
[`util_cauchy_stats_tbl()`](https://www.spsanderson.com/TidyDensity/reference/util_cauchy_stats_tbl.md)

## Author

Steven P. Sanderson II, MPH

## Examples

``` r
tidy_cauchy()
#> # A tibble: 50 × 7
#>    sim_number     x        y      dx       dy      p        q
#>    <fct>      <int>    <dbl>   <dbl>    <dbl>  <dbl>    <dbl>
#>  1 1              1   4.59   -16.7   0.000205 0.932    4.59  
#>  2 1              2  -0.173  -14.7   0.0183   0.446   -0.173 
#>  3 1              3  83.2    -12.6   0.000240 0.996   83.2   
#>  4 1              4 -14.1    -10.5   0.0151   0.0225 -14.1   
#>  5 1              5  -3.24    -8.46  0.000802 0.0953  -3.24  
#>  6 1              6   0.110   -6.39  0.0188   0.535    0.110 
#>  7 1              7  -6.65    -4.32  0.00818  0.0475  -6.65  
#>  8 1              8   0.199   -2.25  0.0447   0.563    0.199 
#>  9 1              9   0.0877  -0.178 0.294    0.528    0.0877
#> 10 1             10   0.626    1.89  0.0671   0.678    0.626 
#> # ℹ 40 more rows
```
