Tidy Randomly Generated Chisquare (Non-Central) Distribution Tibble — tidy_chisquare • TidyDensity
…
Other Chisquare: 
util_chisquare_stats_tbl()

    Author

    Steven P. Sanderson II, MPH

    Examples

tidy_chisquare()
#> # A tibble: 50 × 7
#>    sim_number     x     y      dx       dy      p       q
#>    <fct>      <int> <dbl>   <dbl>    <dbl>  <dbl>   <dbl>
#>  1 1              1 0.341 -1.75   0.000989 0      0.00687
#>  2 1              2 1.25  -1.50   0.00352  0.0691 0.0926 
#>  3 1              3 1.16  -1.26   0.0107   0.0978 0.0792 
#>  4 1              4 1.06  -1.01   0.0277   0.120  0.0662 
#>  5 1              5 0.406 -0.767  0.0613   0.138  0.00977
#>  6 1              6 0.296 -0.523  0.116    0.155  0.00519
#>  7 1              7 0.348 -0.279  0.190    0.169  0.00719
#>  8 1              8 1.42  -0.0341 0.269    0.183  0.119  
#>  9 1              9 1.68   0.210  0.334    0.195  0.168  
#> 10 1             10 4.00   0.455  0.367    0.207  0.972  
#> # … with 40 more rows
…
