…
Other Chisquare:
[`util_chisquare_param_estimate()`](https://www.spsanderson.com/TidyDensity/reference/util_chisquare_param_estimate.md),
[`util_chisquare_stats_tbl()`](https://www.spsanderson.com/TidyDensity/reference/util_chisquare_stats_tbl.md)

## Author

Steven P. Sanderson II, MPH

## Examples

``` r
tidy_chisquare()
#> # A tibble: 50 × 7
#>    sim_number     x       y      dx      dy     p       q
#>    <fct>      <int>   <dbl>   <dbl>   <dbl> <dbl>   <dbl>
#>  1 1              1  9.62   -2.08   0.00142 0.982  9.62  
#>  2 1              2  0.884  -1.74   0.00578 0.450  0.884 
#>  3 1              3  1.37   -1.40   0.0189  0.553  1.37  
#>  4 1              4  2.95   -1.07   0.0498  0.760  2.95  
#>  5 1              5  0.345  -0.731  0.106   0.284  0.345 
#>  6 1              6  1.76   -0.395  0.182   0.618  1.76  
#>  7 1              7  0.0717 -0.0584 0.257   0.130  0.0717
#>  8 1              8  0.612   0.278  0.303   0.376  0.612 
#>  9 1              9 12.3     0.614  0.306   0.994 12.3   
#> 10 1             10  3.39    0.950  0.274   0.797  3.39  
#> # ℹ 40 more rows
```
