…
## Author

Steven P. Sanderson II, MPH

## Examples

``` r
tidy_inverse_weibull()
#> # A tibble: 50 × 7
#>    sim_number     x      y     dx       dy     p      q
#>    <fct>      <int>  <dbl>  <dbl>    <dbl> <dbl>  <dbl>
#>  1 1              1  2.93  -2.97  0.000702 0.711  2.93 
#>  2 1              2  2.09  -1.68  0.0174   0.620  2.09 
#>  3 1              3 57.4   -0.378 0.110    0.983 57.4  
#>  4 1              4 37.0    0.920 0.206    0.973 37.0  
#>  5 1              5  0.482  2.22  0.159    0.126  0.482
#>  6 1              6  7.41   3.52  0.0763   0.874  7.41 
#>  7 1              7  1.91   4.81  0.0325   0.592  1.91 
#>  8 1              8  7.19   6.11  0.0318   0.870  7.19 
#>  9 1              9  1.06   7.41  0.0399   0.391  1.06 
#> 10 1             10  7.31   8.71  0.0178   0.872  7.31 
#> # ℹ 40 more rows
```
