…
## Author

Steven P. Sanderson II, MPH

## Examples

``` r
tidy_inverse_gamma()
#> # A tibble: 50 × 7
#>    sim_number     x      y     dx       dy     p      q
#>    <fct>      <int>  <dbl>  <dbl>    <dbl> <dbl>  <dbl>
#>  1 1              1  0.902  -1.31 1.13e- 2 0.330  0.902
#>  2 1              2  1.50   10.8  5.04e- 4 0.514  1.50 
#>  3 1              3  8.34   23.0  2.62e-13 0.887  8.34 
#>  4 1              4  8.63   35.2  0        0.891  8.63 
#>  5 1              5  0.807  47.3  0        0.290  0.807
#>  6 1              6  1.70   59.5  1.19e-18 0.556  1.70 
#>  7 1              7  4.44   71.6  4.39e-19 0.798  4.44 
#>  8 1              8 28.9    83.8  0        0.966 28.9  
#>  9 1              9  0.641  96.0  7.70e-19 0.210  0.641
#> 10 1             10  2.45  108.   0        0.665  2.45 
#> # ℹ 40 more rows
```
