…
Other Hypergeometric:
[`util_hypergeometric_param_estimate()`](https://www.spsanderson.com/TidyDensity/reference/util_hypergeometric_param_estimate.md),
[`util_hypergeometric_stats_tbl()`](https://www.spsanderson.com/TidyDensity/reference/util_hypergeometric_stats_tbl.md)

## Author

Steven P. Sanderson II, MPH

## Examples

``` r
tidy_hypergeometric()
#> # A tibble: 50 × 7
#>    sim_number     x     y     dx     dy     p     q
#>    <fct>      <int> <int>  <dbl>  <dbl> <dbl> <dbl>
#>  1 1              1     0 -1.23  0.0108     1     0
#>  2 1              2     0 -1.18  0.0155     1     0
#>  3 1              3     0 -1.13  0.0218     1     0
#>  4 1              4     0 -1.08  0.0303     1     0
#>  5 1              5     0 -1.03  0.0415     1     0
#>  6 1              6     0 -0.983 0.0561     1     0
#>  7 1              7     0 -0.932 0.0745     1     0
#>  8 1              8     0 -0.882 0.0976     1     0
#>  9 1              9     0 -0.832 0.126      1     0
#> 10 1             10     0 -0.781 0.160      1     0
#> # ℹ 40 more rows
```
