…
## Author

Steven P. Sanderson II, MPH

## Examples

``` r
tidy_pareto()
#> # A tibble: 50 × 7
#>    sim_number     x       y        dx     dy     p       q
#>    <fct>      <int>   <dbl>     <dbl>  <dbl> <dbl>   <dbl>
#>  1 1              1 0.0264  -0.00984   0.115 0.904 0.0264 
#>  2 1              2 0.0161  -0.00763   0.815 0.776 0.0161 
#>  3 1              3 0.0213  -0.00542   3.87  0.856 0.0213 
#>  4 1              4 0.00170 -0.00321  12.6   0.155 0.00170
#>  5 1              5 0.00918 -0.000997 28.6   0.585 0.00918
#>  6 1              6 0.00592  0.00121  47.0   0.437 0.00592
#>  7 1              7 0.00550  0.00343  58.3   0.414 0.00550
#>  8 1              8 0.0304   0.00564  58.2   0.930 0.0304 
#>  9 1              9 0.00264  0.00785  49.5   0.229 0.00264
#> 10 1             10 0.00550  0.0101   38.3   0.415 0.00550
#> # ℹ 40 more rows
```
