Tidy Mixture Data — tidy_mixture_density • TidyDensity
…
input_fns - A list of the functions and their parameters passed to the function
itsefl

    Author

    Steven P. Sanderson II, MPH

    Examples

output <- tidy_mixture_density(rnorm(100, 0, 1), tidy_normal(.mean = 5, .sd = 1))

output$data
#> $dist_tbl
#> # A tibble: 150 × 2
#>        x       y
#>    <int>   <dbl>
#>  1     1 -0.612 
#>  2     2  0.601 
#>  3     3 -0.0125
#>  4     4 -1.51  
#>  5     5  0.109 
#>  6     6  1.07  
#>  7     7  0.284 
#>  8     8 -0.803 
#>  9     9 -1.28  
#> 10    10 -0.279 
#> # … with 140 more rows
#> # ℹ Use `print(n = ...)` to see more rows
#> 
#> $dens_tbl
#> # A tibble: 150 × 2
#>        x         y
#>    <dbl>     <dbl>
#>  1 -5.41 0.0000520
#>  2 -5.31 0.0000759
#>  3 -5.21 0.000109 
#>  4 -5.11 0.000156 
#>  5 -5.01 0.000219 
#>  6 -4.91 0.000303 
#>  7 -4.81 0.000417 
#>  8 -4.71 0.000566 
#>  9 -4.61 0.000760 
#> 10 -4.51 0.00101  
#> # … with 140 more rows
#> # ℹ Use `print(n = ...)` to see more rows
…
#>  [41] -2.1647979838 -2.3448080625 -0.3730662496  0.5789717576 -0.0157373458
#>  [46]  1.2650715795  0.0897316594  0.9389441857  0.3626601467  0.8258891569
#>  [51]  0.9085646730  0.8875818434 -0.9807346310  0.4208301196 -0.7204400111
#>  [56]  0.5137492602 -2.0107027538 -0.0153387572  0.5642061346  1.2996484819
#>  [61] -1.0725278623  0.2176863814  0.7419039488 -1.2307901067  0.3831009084
#>  [66] -0.0772016778 -0.1683793632 -0.0228888356  0.2390466889 -0.2702238587
#>  [71]  0.1893849364 -2.4940661980 -0.5124201959  1.7252282741 -0.9865390888
#>  [76]  0.2288538346 -1.2613549560 -0.4162911589 -1.6764142803 -0.9419942575
#>  [81] -1.8086384873  1.0446578596 -0.1594055164  0.1825854684 -0.6692773508
#>  [86]  1.3716961266  1.1380283255  1.7388383481 -1.0298027287 -1.6163892903
#>  [91] -0.3515524458  0.0004761728  1.2620921078 -0.7772423208  1.1928303629
#>  [96] -1.2600475445  0.9596111048 -0.3089583263  0.2576793313 -0.0768493107
#> 
#> $input_data$`tidy_normal(.mean = 5, .sd = 1)`
#> # A tibble: 50 × 7
#>    sim_number     x     y    dx       dy           p     q
#>    <fct>      <int> <dbl> <dbl>    <dbl>       <dbl> <dbl>
#>  1 1              1  6.31 0.578 0.000239 0.000000287  6.12
#>  2 1              2  4.70 0.733 0.000750 0.000000319  5.16
#>  3 1              3  6.05 0.887 0.00199  0.000000354  5.91
#>  4 1              4  3.73 1.04  0.00447  0.000000393  4.70
#>  5 1              5  4.25 1.20  0.00848  0.000000436  4.95
#>  6 1              6  4.08 1.35  0.0136   0.000000484  4.87
#>  7 1              7  3.80 1.50  0.0184   0.000000537  4.74
#>  8 1              8  4.64 1.66  0.0211   0.000000595  5.14
#>  9 1              9  5.45 1.81  0.0206   0.000000660  5.54
#> 10 1             10  5.33 1.97  0.0174   0.000000731  5.48
#> # … with 40 more rows
#> # ℹ Use `print(n = ...)` to see more rows
…
