Compare Empirical Data to Distributions — tidy_distribution_comparison • TidyDensity
…
xd <- trunc(xc)
output_d <- tidy_distribution_comparison(xd, "discrete")
#> There was no need to scale the data.
#> Warning: There were 12 warnings in `dplyr::mutate()`.
#> The first warning was:
#> ℹ In argument: `aic_value = dplyr::case_when(...)`.
#> Caused by warning in `actuar::dpareto()`:
#> ! NaNs produced
#> ℹ Run dplyr::last_dplyr_warnings() to see the 11 remaining warnings.

output_c
#> $comparison_tbl
#> # A tibble: 384 × 8
#>    sim_number     x     y    dx       dy     p     q dist_type
#>    <fct>      <int> <dbl> <dbl>    <dbl> <dbl> <dbl> <fct>    
#>  1 1              1  21    2.97 0.000114 0.625  10.4 Empirical
#>  2 1              2  21    4.21 0.000455 0.625  10.4 Empirical
#>  3 1              3  22.8  5.44 0.00142  0.781  13.3 Empirical
#>  4 1              4  21.4  6.68 0.00355  0.688  14.3 Empirical
#>  5 1              5  18.7  7.92 0.00721  0.469  14.7 Empirical
#>  6 1              6  18.1  9.16 0.0124   0.438  15   Empirical
#>  7 1              7  14.3 10.4  0.0192   0.125  15.2 Empirical
#>  8 1              8  24.4 11.6  0.0281   0.812  15.2 Empirical
#>  9 1              9  22.8 12.9  0.0395   0.781  15.5 Empirical
#> 10 1             10  19.2 14.1  0.0516   0.531  15.8 Empirical
#> # ℹ 374 more rows
#> 
#> $deviance_tbl
#> # A tibble: 384 × 2
#>    name                        value
#>    <chr>                       <dbl>
#>  1 Empirical                  0.451 
#>  2 Beta c(1.107, 1.577, 0)    0.287 
#>  3 Cauchy c(19.2, 7.375)     -0.0169
#>  4 Chisquare c(20.243, 0)    -0.106 
#>  5 Exponential c(0.05)        0.230 
#>  6 Gamma c(11.47, 1.752)     -0.0322
#>  7 Logistic c(20.091, 3.27)   0.193 
#>  8 Lognormal c(2.958, 0.293)  0.283 
#>  9 Pareto c(10.4, 1.624)      0.446 
#> 10 Uniform c(8.341, 31.841)   0.242 
#> # ℹ 374 more rows
…
#>  8 Lognorma…           4.72        206.    206.        0.281  0.160    Monte-Ca…
#>  9 Gaussian…           4.74        209.    209.        0.156  0.833    Monte-Ca…
#> 10 Pareto c…           6.95        260.    260.        0.719  0.000500 Monte-Ca…
#> 11 Exponent…           7.67        258.    258.        0.469  0.00100  Monte-Ca…
#> # ℹ 1 more variable: alternative <chr>
#> 
#> attr(,".x")
#>  [1] 21.0 21.0 22.8 21.4 18.7 18.1 14.3 24.4 22.8 19.2 17.8 16.4 17.3 15.2 10.4
#> [16] 10.4 14.7 32.4 30.4 33.9 21.5 15.5 15.2 13.3 19.2 27.3 26.0 30.4 15.8 19.7
#> [31] 15.0 21.4
#> attr(,".n")
#> [1] 32
output_d
#> $comparison_tbl
#> # A tibble: 160 × 8
#>    sim_number     x     y    dx       dy     p     q dist_type
#>    <fct>      <int> <dbl> <dbl>    <dbl> <dbl> <dbl> <fct>    
#>  1 1              1    21  2.95 0.000120 0.719    10 Empirical
#>  2 1              2    21  4.14 0.000487 0.719    10 Empirical
#>  3 1              3    22  5.34 0.00154  0.781    13 Empirical
#>  4 1              4    21  6.54 0.00383  0.719    14 Empirical
#>  5 1              5    18  7.74 0.00766  0.469    14 Empirical
#>  6 1              6    18  8.93 0.0129   0.469    15 Empirical
#>  7 1              7    14 10.1  0.0194   0.156    15 Empirical
#>  8 1              8    24 11.3  0.0282   0.812    15 Empirical
#>  9 1              9    22 12.5  0.0397   0.781    15 Empirical
#> 10 1             10    19 13.7  0.0524   0.562    15 Empirical
#> # ℹ 150 more rows
#> 
#> $deviance_tbl
#> # A tibble: 160 × 2
#>    name                             value
#>    <chr>                            <dbl>
#>  1 Empirical                     0.478   
#>  2 Binomial c(32, 0.031)         0.145   
#>  3 Geometric c(0.048)           -0.000463
#>  4 Hypergeometric c(21, 11, 21) -0.322   
#>  5 Poisson c(19.688)            -0.0932  
#>  6 Empirical                     0.478   
#>  7 Binomial c(32, 0.031)         0.478   
#>  8 Geometric c(0.048)            0.361   
#>  9 Hypergeometric c(21, 11, 21) -0.122   
#> 10 Poisson c(19.688)             0.193   
#> # ℹ 150 more rows
…
