…
Other Lognormal:
[`util_lognormal_param_estimate()`](https://www.spsanderson.com/TidyDensity/reference/util_lognormal_param_estimate.md),
[`util_lognormal_stats_tbl()`](https://www.spsanderson.com/TidyDensity/reference/util_lognormal_stats_tbl.md)

## Author

Steven P. Sanderson II, MPH

## Examples

``` r
tidy_lognormal()
#> # A tibble: 50 × 7
#>    sim_number     x     y      dx       dy      p     q
#>    <fct>      <int> <dbl>   <dbl>    <dbl>  <dbl> <dbl>
#>  1 1              1 1.02  -0.788  0.000728 0.510  1.02 
#>  2 1              2 1.43  -0.546  0.00861  0.640  1.43 
#>  3 1              3 0.376 -0.304  0.0557   0.164  0.376
#>  4 1              4 0.642 -0.0618 0.207    0.329  0.642
#>  5 1              5 0.910  0.180  0.460    0.463  0.910
#>  6 1              6 0.258  0.423  0.658    0.0876 0.258
#>  7 1              7 0.440  0.665  0.678    0.206  0.440
#>  8 1              8 0.345  0.907  0.548    0.143  0.345
#>  9 1              9 0.616  1.15   0.344    0.314  0.616
#> 10 1             10 0.470  1.39   0.172    0.225  0.470
#> # ℹ 40 more rows
```
