…
Other Uniform:
[`util_uniform_param_estimate()`](https://www.spsanderson.com/TidyDensity/reference/util_uniform_param_estimate.md),
[`util_uniform_stats_tbl()`](https://www.spsanderson.com/TidyDensity/reference/util_uniform_stats_tbl.md)

## Author

Steven P. Sanderson II, MPH

## Examples

``` r
tidy_uniform()
#> # A tibble: 50 × 7
#>    sim_number     x       y      dx      dy       p       q
#>    <fct>      <int>   <dbl>   <dbl>   <dbl>   <dbl>   <dbl>
#>  1 1              1 0.157   -0.296  0.00219 0.157   0.157  
#>  2 1              2 0.699   -0.265  0.00539 0.699   0.699  
#>  3 1              3 0.00615 -0.234  0.0122  0.00615 0.00615
#>  4 1              4 0.0328  -0.204  0.0253  0.0328  0.0328 
#>  5 1              5 0.397   -0.173  0.0485  0.397   0.397  
#>  6 1              6 0.288   -0.143  0.0861  0.288   0.288  
#>  7 1              7 0.722   -0.112  0.142   0.722   0.722  
#>  8 1              8 0.245   -0.0813 0.219   0.245   0.245  
#>  9 1              9 0.607   -0.0506 0.316   0.607   0.607  
#> 10 1             10 0.447   -0.0200 0.432   0.447   0.447  
#> # ℹ 40 more rows
```
