…
## Author

Steven P. Sanderson II, MPH

## Examples

``` r
tidy_negative_binomial()
#> # A tibble: 50 × 7
#>    sim_number     x     y     dx       dy     p     q
#>    <fct>      <int> <int>  <dbl>    <dbl> <dbl> <dbl>
#>  1 1              1     4 -9.47  0.000175 0.410     4
#>  2 1              2     8 -8.43  0.000482 0.613     8
#>  3 1              3    15 -7.39  0.00120  0.815    15
#>  4 1              4     3 -6.35  0.00270  0.344     3
#>  5 1              5     1 -5.31  0.00551  0.190     1
#>  6 1              6     4 -4.27  0.0102   0.410     4
#>  7 1              7    18 -3.24  0.0172   0.865    18
#>  8 1              8     2 -2.20  0.0263   0.271     2
#>  9 1              9    10 -1.16  0.0369   0.686    10
#> 10 1             10     8 -0.116 0.0473   0.613     8
#> # ℹ 40 more rows
```
