…
Other Gaussian:
[`tidy_inverse_normal()`](https://www.spsanderson.com/TidyDensity/reference/tidy_inverse_normal.md),
[`util_normal_param_estimate()`](https://www.spsanderson.com/TidyDensity/reference/util_normal_param_estimate.md),
[`util_normal_stats_tbl()`](https://www.spsanderson.com/TidyDensity/reference/util_normal_stats_tbl.md)

## Author

Steven P. Sanderson II, MPH

## Examples

``` r
tidy_normal()
#> # A tibble: 50 × 7
#>    sim_number     x      y    dx       dy      p      q
#>    <fct>      <int>  <dbl> <dbl>    <dbl>  <dbl>  <dbl>
#>  1 1              1  0.170 -2.77 0.000542 0.567   0.170
#>  2 1              2 -1.56  -2.65 0.00131  0.0593 -1.56 
#>  3 1              3  0.931 -2.53 0.00294  0.824   0.931
#>  4 1              4 -0.793 -2.41 0.00607  0.214  -0.793
#>  5 1              5 -1.07  -2.29 0.0116   0.141  -1.07 
#>  6 1              6  0.750 -2.18 0.0208   0.773   0.750
#>  7 1              7  0.941 -2.06 0.0345   0.827   0.941
#>  8 1              8 -0.315 -1.94 0.0534   0.376  -0.315
#>  9 1              9 -0.555 -1.82 0.0777   0.290  -0.555
#> 10 1             10 -0.129 -1.70 0.106    0.449  -0.129
#> # ℹ 40 more rows
```
