…
## Author

Steven P. Sanderson II, MPH

## Examples

``` r
tidy_inverse_burr()
#> # A tibble: 50 × 7
#>    sim_number     x      y     dx      dy      p      q
#>    <fct>      <int>  <dbl>  <dbl>   <dbl>  <dbl>  <dbl>
#>  1 1              1 1.75   -2.93  0.00105 0.636  1.75  
#>  2 1              2 0.0532 -2.14  0.00954 0.0505 0.0532
#>  3 1              3 3.41   -1.34  0.0470  0.773  3.41  
#>  4 1              4 7.56   -0.550 0.128   0.883  7.56  
#>  5 1              5 0.103   0.243 0.203   0.0933 0.103 
#>  6 1              6 4.06    1.04  0.205   0.802  4.06  
#>  7 1              7 4.91    1.83  0.160   0.831  4.91  
#>  8 1              8 0.0668  2.62  0.119   0.0626 0.0668
#>  9 1              9 8.89    3.42  0.0919  0.899  8.89  
#> 10 1             10 4.90    4.21  0.0719  0.831  4.90  
#> # ℹ 40 more rows
```
