…
Other Beta:
[`tidy_beta()`](https://www.spsanderson.com/TidyDensity/reference/tidy_beta.md),
[`util_beta_param_estimate()`](https://www.spsanderson.com/TidyDensity/reference/util_beta_param_estimate.md),
[`util_beta_stats_tbl()`](https://www.spsanderson.com/TidyDensity/reference/util_beta_stats_tbl.md)

## Author

Steven P. Sanderson II, MPH

## Examples

``` r
tidy_generalized_beta()
#> # A tibble: 50 × 7
#>    sim_number     x      y      dx      dy      p      q
#>    <fct>      <int>  <dbl>   <dbl>   <dbl>  <dbl>  <dbl>
#>  1 1              1 0.101  -0.321  0.00234 0.101  0.101 
#>  2 1              2 0.851  -0.289  0.00562 0.851  0.851 
#>  3 1              3 0.748  -0.257  0.0125  0.748  0.748 
#>  4 1              4 0.0988 -0.225  0.0260  0.0988 0.0988
#>  5 1              5 0.308  -0.193  0.0503  0.308  0.308 
#>  6 1              6 0.432  -0.161  0.0905  0.432  0.432 
#>  7 1              7 0.253  -0.130  0.152   0.253  0.253 
#>  8 1              8 0.237  -0.0976 0.238   0.237  0.237 
#>  9 1              9 0.391  -0.0657 0.348   0.391  0.391 
#> 10 1             10 0.575  -0.0337 0.479   0.575  0.575 
#> # ℹ 40 more rows
```
