Tidy Randomly Generated Negative Binomial Distribution Tibble — tidy_negative_binomial • TidyDensity
…
    Author

    Steven P. Sanderson II, MPH

    Examples

tidy_negative_binomial()
#> # A tibble: 50 × 7
#>    sim_number     x     y     dx       dy     p     q
#>    <fct>      <int> <int>  <dbl>    <dbl> <dbl> <dbl>
#>  1 1              1     6 -7.83  0.000144 0.522     6
#>  2 1              2    40 -6.70  0.000539 0.987    40
#>  3 1              3     7 -5.56  0.00169  0.570     7
#>  4 1              4    10 -4.42  0.00449  0.686    10
#>  5 1              5    18 -3.29  0.0100   0.865    18
#>  6 1              6     5 -2.15  0.0190   0.469     5
#>  7 1              7     6 -1.02  0.0308   0.522     6
#>  8 1              8     7  0.120 0.0431   0.570     7
#>  9 1              9     2  1.26  0.0531   0.271     2
#> 10 1             10     1  2.39  0.0592   0.190     1
#> # ℹ 40 more rows
…
