…
Other Exponential:
[`tidy_inverse_exponential()`](https://www.spsanderson.com/TidyDensity/reference/tidy_inverse_exponential.md),
[`util_exponential_param_estimate()`](https://www.spsanderson.com/TidyDensity/reference/util_exponential_param_estimate.md),
[`util_exponential_stats_tbl()`](https://www.spsanderson.com/TidyDensity/reference/util_exponential_stats_tbl.md)

## Author

Steven P. Sanderson II, MPH

## Examples

``` r
tidy_exponential()
#> # A tibble: 50 × 7
#>    sim_number     x      y      dx      dy      p      q
#>    <fct>      <int>  <dbl>   <dbl>   <dbl>  <dbl>  <dbl>
#>  1 1              1 0.0209 -1.07   0.00156 0.0207 0.0209
#>  2 1              2 0.576  -0.914  0.00601 0.438  0.576 
#>  3 1              3 1.13   -0.753  0.0192  0.678  1.13  
#>  4 1              4 0.176  -0.593  0.0516  0.161  0.176 
#>  5 1              5 1.44   -0.433  0.116   0.763  1.44  
#>  6 1              6 0.165  -0.272  0.221   0.152  0.165 
#>  7 1              7 0.168  -0.112  0.356   0.155  0.168 
#>  8 1              8 0.136   0.0484 0.490   0.127  0.136 
#>  9 1              9 0.0990  0.209  0.581   0.0943 0.0990
#> 10 1             10 0.0599  0.369  0.600   0.0582 0.0599
#> # ℹ 40 more rows
```
