…
## Examples

``` r
tidy_multi_single_dist(
  .tidy_dist = "tidy_normal",
  .param_list = list(
    .n = 50,
    .mean = c(-1, 0, 1),
    .sd = 1,
    .num_sims = 3,
    .return_tibble = TRUE
  )
)
#> # A tibble: 450 × 8
#>    sim_number dist_name             x       y    dx       dy      p       q
#>    <fct>      <fct>             <int>   <dbl> <dbl>    <dbl>  <dbl>   <dbl>
#>  1 1          Gaussian c(-1, 1)     1  0.357  -4.22 0.000288 0.913   0.357 
#>  2 1          Gaussian c(-1, 1)     2 -3.00   -4.09 0.000757 0.0228 -3.00  
#>  3 1          Gaussian c(-1, 1)     3 -0.0439 -3.96 0.00181  0.830  -0.0439
#>  4 1          Gaussian c(-1, 1)     4 -0.124  -3.82 0.00391  0.810  -0.124 
#>  5 1          Gaussian c(-1, 1)     5 -2.27   -3.69 0.00771  0.102  -2.27  
#>  6 1          Gaussian c(-1, 1)     6 -1.77   -3.56 0.0138   0.221  -1.77  
#>  7 1          Gaussian c(-1, 1)     7 -0.806  -3.43 0.0228   0.577  -0.806 
#>  8 1          Gaussian c(-1, 1)     8  0.144  -3.29 0.0344   0.874   0.144 
#>  9 1          Gaussian c(-1, 1)     9 -1.77   -3.16 0.0483   0.222  -1.77  
#> 10 1          Gaussian c(-1, 1)    10 -1.22   -3.03 0.0637   0.411  -1.22  
#> # ℹ 440 more rows
…
