Tidy Randomly Generated T Distribution Tibble — tidy_t • TidyDensity
…
Other T Distribution: 
util_t_stats_tbl()

    Author

    Steven P. Sanderson II, MPH

    Examples

tidy_t()
#> # A tibble: 50 × 7
#>    sim_number     x        y     dx       dy     p       q
#>    <fct>      <int>    <dbl>  <dbl>    <dbl> <dbl>   <dbl>
#>  1 1              1  -0.211  -31.9  1.70e- 4 0.5     -1.27
#>  2 1              2   4.30   -29.0  5.68e- 3 0.506   -1.03
#>  3 1              3 -29.8    -26.1  1.60e- 5 0.513 -Inf   
#>  4 1              4   0.227  -23.1  1.00e- 2 0.519   -1.24
#>  5 1              5 110.     -20.2  5.07e- 7 0.526  Inf   
#>  6 1              6   2.12   -17.3  0        0.532   -1.14
#>  7 1              7  -0.0181 -14.3  8.72e-18 0.539   -1.26
#>  8 1              8  -0.112  -11.4  0        0.545   -1.26
#>  9 1              9   2.48    -8.47 2.90e-15 0.552   -1.12
#> 10 1             10  -2.63    -5.54 2.76e- 5 0.558   -1.42
#> # … with 40 more rows
#> # ℹ Use `print(n = ...)` to see more rows
…
