Tidy Randomly Generated Gamma Distribution Tibble — tidy_gamma • TidyDensity
…
Other Gamma: 
tidy_inverse_gamma(),
util_gamma_param_estimate()

    Author

    Steven P. Sanderson II, MPH

    Examples

tidy_gamma()
#> # A tibble: 50 x 7
#>    sim_number     x      y      dx      dy      p      q
#>    <fct>      <int>  <dbl>   <dbl>   <dbl>  <dbl>  <dbl>
#>  1 1              1 1.23   -0.870  0.00172 0      0     
#>  2 1              2 0.918  -0.721  0.00751 0.0202 0.0206
#>  3 1              3 0.0757 -0.571  0.0260  0.0400 0.0417
#>  4 1              4 0.133  -0.422  0.0720  0.0594 0.0632
#>  5 1              5 0.0835 -0.272  0.160   0.0784 0.0852
#>  6 1              6 0.466  -0.123  0.288   0.0970 0.108 
#>  7 1              7 1.22    0.0264 0.426   0.115  0.131 
#>  8 1              8 0.551   0.176  0.534   0.133  0.154 
#>  9 1              9 0.142   0.325  0.591   0.151  0.178 
#> 10 1             10 5.54    0.475  0.605   0.168  0.203 
#> # ... with 40 more rows
…
