…
Other Logistic:
[`tidy_paralogistic()`](https://www.spsanderson.com/TidyDensity/reference/tidy_paralogistic.md),
[`util_logistic_param_estimate()`](https://www.spsanderson.com/TidyDensity/reference/util_logistic_param_estimate.md),
[`util_logistic_stats_tbl()`](https://www.spsanderson.com/TidyDensity/reference/util_logistic_stats_tbl.md)

## Author

Steven P. Sanderson II, MPH

## Examples

``` r
tidy_logistic()
#> # A tibble: 50 × 7
#>    sim_number     x       y    dx       dy      p       q
#>    <fct>      <int>   <dbl> <dbl>    <dbl>  <dbl>   <dbl>
#>  1 1              1 -0.864  -5.97 0.000143 0.296  -0.864 
#>  2 1              2 -1.57   -5.74 0.000418 0.173  -1.57  
#>  3 1              3  3.61   -5.50 0.00106  0.974   3.61  
#>  4 1              4  1.80   -5.26 0.00234  0.858   1.80  
#>  5 1              5  0.203  -5.02 0.00450  0.550   0.203 
#>  6 1              6  2.33   -4.79 0.00763  0.911   2.33  
#>  7 1              7 -2.99   -4.55 0.0116   0.0479 -2.99  
#>  8 1              8  2.40   -4.31 0.0160   0.917   2.40  
#>  9 1              9  0.0443 -4.07 0.0211   0.511   0.0443
#> 10 1             10  0.751  -3.83 0.0272   0.679   0.751 
#> # ℹ 40 more rows
```
