…
Other Logistic:
[`tidy_logistic()`](https://www.spsanderson.com/TidyDensity/reference/tidy_logistic.md),
[`util_logistic_param_estimate()`](https://www.spsanderson.com/TidyDensity/reference/util_logistic_param_estimate.md),
[`util_logistic_stats_tbl()`](https://www.spsanderson.com/TidyDensity/reference/util_logistic_stats_tbl.md)

## Author

Steven P. Sanderson II, MPH

## Examples

``` r
tidy_paralogistic()
#> # A tibble: 50 × 7
#>    sim_number     x      y     dx           dy     p      q
#>    <fct>      <int>  <dbl>  <dbl>        <dbl> <dbl>  <dbl>
#>  1 1              1  4.85  -2.86  0.000944     0.829  4.85 
#>  2 1              2 46.2    0.892 0.207        0.979 46.2  
#>  3 1              3  3.72   4.64  0.0403       0.788  3.72 
#>  4 1              4  2.14   8.39  0.00809      0.682  2.14 
#>  5 1              5  0.716 12.1   0.00415      0.417  0.716
#>  6 1              6 18.5   15.9   0.0117       0.949 18.5  
#>  7 1              7  3.00  19.6   0.00436      0.750  3.00 
#>  8 1              8 67.1   23.4   0.0000000366 0.985 67.1  
#>  9 1              9  3.58  27.2   0            0.782  3.58 
#> 10 1             10  0.910 30.9   0            0.476  0.910
#> # ℹ 40 more rows
```
