…
Other Burr:
[`tidy_inverse_burr()`](https://www.spsanderson.com/TidyDensity/reference/tidy_inverse_burr.md),
[`util_burr_param_estimate()`](https://www.spsanderson.com/TidyDensity/reference/util_burr_param_estimate.md),
[`util_burr_stats_tbl()`](https://www.spsanderson.com/TidyDensity/reference/util_burr_stats_tbl.md)

## Author

Steven P. Sanderson II, MPH

## Examples

``` r
tidy_burr()
#> # A tibble: 50 × 7
#>    sim_number     x      y     dx       dy      p      q
#>    <fct>      <int>  <dbl>  <dbl>    <dbl>  <dbl>  <dbl>
#>  1 1              1  4.23  -3.05  0.000968 0.809   4.23 
#>  2 1              2  1.41  -1.22  0.0640   0.585   1.41 
#>  3 1              3  0.105  0.600 0.241    0.0953  0.105
#>  4 1              4  0.112  2.42  0.0952   0.100   0.112
#>  5 1              5  2.09   4.25  0.0331   0.676   2.09 
#>  6 1              6  9.22   6.07  0.00813  0.902   9.22 
#>  7 1              7 83.2    7.89  0.0160   0.988  83.2  
#>  8 1              8  1.24   9.72  0.0205   0.553   1.24 
#>  9 1              9  0.371 11.5   0.00417  0.271   0.371
#> 10 1             10  0.567 13.4   0.00758  0.362   0.567
#> # ℹ 40 more rows
```
