…
Other Triangular:
[`util_triangular_param_estimate()`](https://www.spsanderson.com/TidyDensity/reference/util_triangular_param_estimate.md),
[`util_triangular_stats_tbl()`](https://www.spsanderson.com/TidyDensity/reference/util_triangular_stats_tbl.md)

## Author

Steven P. Sanderson II, MPH

## Examples

``` r
tidy_triangular(.return_tibble = TRUE)
#> # A tibble: 50 × 7
#>    sim_number     x     y        dx      dy      p     q
#>    <fct>      <int> <dbl>     <dbl>   <dbl>  <dbl> <dbl>
#>  1 1              1 0.654 -0.270    0.00145 0.760  0.654
#>  2 1              2 0.168 -0.240    0.00376 0.0567 0.168
#>  3 1              3 0.164 -0.210    0.00880 0.0540 0.164
#>  4 1              4 0.310 -0.180    0.0187  0.192  0.310
#>  5 1              5 0.653 -0.150    0.0361  0.759  0.653
#>  6 1              6 0.529 -0.119    0.0639  0.557  0.529
#>  7 1              7 0.127 -0.0894   0.104   0.0325 0.127
#>  8 1              8 0.584 -0.0593   0.157   0.654  0.584
#>  9 1              9 0.496 -0.0293   0.224   0.493  0.496
#> 10 1             10 0.344  0.000812 0.302   0.237  0.344
#> # ℹ 40 more rows
```
