…
Other Bernoulli:
[`util_bernoulli_param_estimate()`](https://www.spsanderson.com/TidyDensity/reference/util_bernoulli_param_estimate.md),
[`util_bernoulli_stats_tbl()`](https://www.spsanderson.com/TidyDensity/reference/util_bernoulli_stats_tbl.md)

## Author

Steven P. Sanderson II, MPH

## Examples

``` r
tidy_bernoulli()
#> # A tibble: 50 × 7
#>    sim_number     x     y       dx     dy     p     q
#>    <fct>      <int> <int>    <dbl>  <dbl> <dbl> <dbl>
#>  1 1              1     0 -0.296   0.0423   0.9     0
#>  2 1              2     0 -0.264   0.108    0.9     0
#>  3 1              3     0 -0.231   0.245    0.9     0
#>  4 1              4     1 -0.199   0.502    1       1
#>  5 1              5     0 -0.166   0.922    0.9     0
#>  6 1              6     0 -0.134   1.52     0.9     0
#>  7 1              7     0 -0.101   2.25     0.9     0
#>  8 1              8     0 -0.0687  2.98     0.9     0
#>  9 1              9     0 -0.0362  3.55     0.9     0
#> 10 1             10     0 -0.00372 3.79     0.9     0
#> # ℹ 40 more rows
```
