…
Other Gamma:
[`tidy_inverse_gamma()`](https://www.spsanderson.com/TidyDensity/reference/tidy_inverse_gamma.md),
[`util_gamma_param_estimate()`](https://www.spsanderson.com/TidyDensity/reference/util_gamma_param_estimate.md),
[`util_gamma_stats_tbl()`](https://www.spsanderson.com/TidyDensity/reference/util_gamma_stats_tbl.md)

## Author

Steven P. Sanderson II, MPH

## Examples

``` r
tidy_gamma()
#> # A tibble: 50 × 6
#>    sim_number     x       y      dx      dy       p
#>    <fct>      <int>   <dbl>   <dbl>   <dbl>   <dbl>
#>  1 1              1 0.238   -0.254  0.00518 0.238  
#>  2 1              2 0.175   -0.215  0.0199  0.175  
#>  3 1              3 0.0363  -0.177  0.0630  0.0363 
#>  4 1              4 0.187   -0.139  0.167   0.187  
#>  5 1              5 0.394   -0.101  0.369   0.394  
#>  6 1              6 0.0175  -0.0624 0.690   0.0175 
#>  7 1              7 0.526   -0.0241 1.09    0.526  
#>  8 1              8 0.229    0.0142 1.48    0.229  
#>  9 1              9 0.0430   0.0525 1.76    0.0430 
#> 10 1             10 0.00369  0.0907 1.87    0.00369
#> # ℹ 40 more rows
```
