…
## Author

Steven P. Sanderson II, MPH

## Examples

``` r
tidy_zero_truncated_poisson()
#> # A tibble: 50 × 7
#>    sim_number     x     y    dx      dy     p     q
#>    <fct>      <int> <int> <dbl>   <dbl> <dbl> <dbl>
#>  1 1              1     1 0.202 0.00934 0.582     1
#>  2 1              2     2 0.275 0.0206  0.873     2
#>  3 1              3     1 0.349 0.0420  0.582     1
#>  4 1              4     1 0.422 0.0794  0.582     1
#>  5 1              5     2 0.495 0.139   0.873     2
#>  6 1              6     1 0.569 0.226   0.582     1
#>  7 1              7     2 0.642 0.340   0.873     2
#>  8 1              8     2 0.716 0.474   0.873     2
#>  9 1              9     3 0.789 0.613   0.970     3
#> 10 1             10     1 0.862 0.734   0.582     1
#> # ℹ 40 more rows
```
