…
## Author

Steven P. Sanderson II, MPH

## Examples

``` r
x <- mtcars$mpg
tidy_bootstrap(x)
#> # A tibble: 2,000 × 2
#>    sim_number bootstrap_samples
#>    <fct>      <list>           
#>  1 1          <dbl [25]>       
#>  2 2          <dbl [25]>       
#>  3 3          <dbl [25]>       
#>  4 4          <dbl [25]>       
#>  5 5          <dbl [25]>       
#>  6 6          <dbl [25]>       
#>  7 7          <dbl [25]>       
#>  8 8          <dbl [25]>       
#>  9 9          <dbl [25]>       
#> 10 10         <dbl [25]>       
#> # ℹ 1,990 more rows
```
