…
Other T Distribution:
[`util_t_stats_tbl()`](https://www.spsanderson.com/TidyDensity/reference/util_t_stats_tbl.md)

## Author

Steven P. Sanderson II, MPH

## Examples

``` r
tidy_t()
#> # A tibble: 50 × 7
#>    sim_number     x        y    dx       dy       p        q
#>    <fct>      <int>    <dbl> <dbl>    <dbl>   <dbl>    <dbl>
#>  1 1              1   0.187  -34.7 1.31e- 4 0.559     0.187 
#>  2 1              2   1.15   -33.8 2.50e- 3 0.772     1.15  
#>  3 1              3   1.83   -33.0 1.00e- 2 0.841     1.83  
#>  4 1              4   0.664  -32.1 8.47e- 3 0.687     0.664 
#>  5 1              5 -32.6    -31.2 1.50e- 3 0.00976 -32.6   
#>  6 1              6   0.452  -30.3 5.60e- 5 0.635     0.452 
#>  7 1              7  -6.23   -29.4 4.33e- 7 0.0507   -6.23  
#>  8 1              8   0.870  -28.6 6.72e-10 0.728     0.870 
#>  9 1              9   0.425  -27.7 2.39e-13 0.628     0.425 
#> 10 1             10   0.0347 -26.8 1.08e-17 0.511     0.0347
#> # ℹ 40 more rows
```
