…
Other Zero Truncated Negative Distribution:
[`util_zero_truncated_negative_binomial_param_estimate()`](https://www.spsanderson.com/TidyDensity/reference/util_zero_truncated_negative_binomial_param_estimate.md)

## Author

Steven P. Sanderson II, MPH

## Examples

``` r
tidy_zero_truncated_negative_binomial()
#> # A tibble: 50 × 7
#>    sim_number     x     y      dx     dy     p     q
#>    <fct>      <int> <int>   <dbl>  <dbl> <dbl> <dbl>
#>  1 1              1     1 -0.235  0.0108     1     1
#>  2 1              2     1 -0.184  0.0155     1     1
#>  3 1              3     1 -0.134  0.0218     1     1
#>  4 1              4     1 -0.0835 0.0303     1     1
#>  5 1              5     1 -0.0331 0.0415     1     1
#>  6 1              6     1  0.0173 0.0561     1     1
#>  7 1              7     1  0.0677 0.0745     1     1
#>  8 1              8     1  0.118  0.0976     1     1
#>  9 1              9     1  0.168  0.126      1     1
#> 10 1             10     1  0.219  0.160      1     1
#> # ℹ 40 more rows
```
