Tidy Randomly Generated Lognormal Distribution Tibble — tidy_lognormal • TidyDensity
…
    Author

    Steven P. Sanderson II, MPH

    Examples

tidy_lognormal()
#> # A tibble: 50 x 7
#>    sim_number     x     y      dx      dy         p     q
#>    <fct>      <int> <dbl>   <dbl>   <dbl>     <dbl> <dbl>
#>  1 1              1 0.232 -1.07   0.00141 0         0    
#>  2 1              2 0.836 -0.878  0.00555 0.0000497 0.129
#>  3 1              3 2.16  -0.687  0.0179  0.000690  0.175
#>  4 1              4 0.998 -0.497  0.0476  0.00261   0.213
#>  5 1              5 1.71  -0.307  0.105   0.00611   0.248
#>  6 1              6 0.170 -0.117  0.194   0.0112    0.281
#>  7 1              7 1.06   0.0732 0.303   0.0179    0.313
#>  8 1              8 0.596  0.263  0.407   0.0258    0.344
#>  9 1              9 0.870  0.453  0.476   0.0350    0.375
#> 10 1             10 1.37   0.644  0.499   0.0451    0.406
#> # ... with 40 more rows
…
